{
  "extends": "../tsconfig.json",
  "compilerOptions": {
    "outDir": "../<%= outDir %>",
    "module": "commonjs",
    "types": ["node"]
  },
  "exclude": [
    "test.ts",
    "**/*.spec.ts"
  ],
  "angularCompilerOptions": {
    "entryModule": "<%= appDir %>/<%= stripTsExtension(rootModuleFileName) %>#<%= rootModuleClassName %>"
  }
}
